{
  "server": false,
  "datacenter": "dc1",
  "node_name": "consul_c1",
  "data_dir": "/var/consul/data",
  "bind_addr": "{{ VM_IP }}",
  "client_addr": "{{ VM_IP }}",
  "log_level": "DEBUG",
  "enable_syslog": true,
  "acl_enforce_version_8": false
}